Division,WeightClassKg,Place,Name,Team,BodyweightKg,Best3SquatKg,Best3BenchKg,Best3DeadliftKg,TotalKg,Equipment,Event,Sex
Boys,51.71,1,Victor Pedraza,PSJA Southwest,51.66,158.76,79.38,165.56,403.7,Single-ply,SBD,M
Boys,51.71,2,Jonathon Bains,PSJA Memorial,51.71,124.74,61.23,108.86,294.84,Single-ply,SBD,M
Boys,51.71,3,Cristian Cavazos #2,Donna,49.9,104.33,65.77,111.13,281.23,Single-ply,SBD,M
Boys,51.71,4,Rigo Medina,Donna,49.8,92.99,63.5,104.33,260.82,Single-ply,SBD,M
Boys,51.71,5,Joesph Acosta,PSJA,43.23,74.84,40.82,92.99,208.65,Single-ply,SBD,M
Boys,55.79,DQ,Juan Dominquez,PSJA North,51.85,111.13,,,,Single-ply,SBD,M
Boys,55.79,1,Rolando Gonzalez,PSJA Southwest,52.25,158.76,113.4,147.42,419.57,Single-ply,SBD,M
Boys,55.79,2,Mauro Vargas,La Joya Juarez-Lincoln,55.25,142.88,83.91,147.42,374.21,Single-ply,SBD,M
Boys,55.79,3,Kevin Sierra,PSJA Southwest,52.62,131.54,79.38,151.95,362.87,Single-ply,SBD,M
Boys,55.79,4,Miguel Tovar,Donna North,52.07,131.54,52.16,129.27,312.98,Single-ply,SBD,M
Boys,59.87,1,Orlando Medrano,Donna North,58.69,179.17,106.59,188.24,474,Single-ply,SBD,M
Boys,59.87,2,Eric Gaona,PSJA Memorial,59.87,190.51,90.72,185.97,467.2,Single-ply,SBD,M
Boys,59.87,3,Caleb Espinoza,Donna,58.69,167.83,86.18,170.1,424.11,Single-ply,SBD,M
Boys,67.13,4,Mike Tamez,Donna,60.06,142.88,83.91,172.37,399.16,Single-ply,SBD,M
Boys,59.87,5,Leo Tanguma,Rio Grande City Grulla,59.6,147.42,95.25,142.88,385.55,Single-ply,SBD,M
Boys,59.87,DQ,Alexis Gonzalez #3,PSJA North,58.06,124.74,,,,Single-ply,SBD,M
Boys,67.13,1,Jerry Pena,Rio Grande City,66.32,208.65,97.52,190.51,496.68,Single-ply,SBD,M
Boys,74.84,2,Isaac Vela,PSJA,67.22,183.7,124.74,185.97,494.42,Single-ply,SBD,M
Boys,67.13,3,Jorge Cantu,PSJA Southwest,65.23,188.24,122.47,181.44,492.15,Single-ply,SBD,M
Boys,67.13,4,Joey Moralez,PSJA Memorial,65.32,172.37,113.4,176.9,462.66,Single-ply,SBD,M
Boys,67.13,5,Joe Rodriguez,PSJA Southwest,64.27,176.9,90.72,183.7,451.32,Single-ply,SBD,M
Boys,67.13,6,Edson Carvajaz,La Joya Juarez-Lincoln,67.13,158.76,102.06,181.44,442.25,Single-ply,SBD,M
Boys,67.13,7,Edgar Garcia,Mission,63.23,127.01,74.84,136.08,337.93,Single-ply,SBD,M
Boys,67.13,8,Rey Blonco,PSJA,62.14,117.93,65.77,138.35,322.05,Single-ply,SBD,M
Boys,67.13,9,Eduardo Gonzalez,La Joya Juarez-Lincoln,64.5,124.74,74.84,115.67,315.25,Single-ply,SBD,M
Boys,67.13,DQ,Gabriel Rios,La Joya,61.87,145.15,,,,Single-ply,SBD,M
Boys,67.13,DQ,Marco Chavez,PSJA Memorial,66.22,,,,,Single-ply,SBD,M
Boys,67.13,DQ,Jesse Rodriguez,PSJA Memorial,65.91,,,,,Single-ply,SBD,M
Boys,74.84,1,Jerry Reyna,La Joya Juarez-Lincoln,73.94,199.58,117.93,217.72,535.24,Single-ply,SBD,M
Boys,74.84,2,Joe Gonzalez,La Joya Juarez-Lincoln,74.03,204.12,104.33,222.26,530.7,Single-ply,SBD,M
Boys,82.1,3,Tony Villarreal,PSJA North,74.98,210.92,108.86,210.92,530.7,Single-ply,SBD,M
Boys,74.84,4,Joseph Segovia,Mission,74.3,163.29,117.93,170.1,451.32,Single-ply,SBD,M
Boys,74.84,5,Andrew Leija,PSJA North,74.39,163.29,99.79,183.7,446.79,Single-ply,SBD,M
Boys,74.84,6,Israel Estrada,PSJA North,73.03,176.9,106.59,158.76,442.25,Single-ply,SBD,M
Boys,74.84,7,Jorge Rodriguez,La Joya,74.57,142.88,102.06,156.49,401.43,Single-ply,SBD,M
Boys,74.84,8,Mark Ochoa,Donna North,70.58,147.42,74.84,158.76,381.02,Single-ply,SBD,M
Boys,82.1,1,Miguel Herrera,Donna,80.92,258.55,145.15,208.65,612.35,Single-ply,SBD,M
Boys,82.1,2,Adan Cantu,Rio Grande City Grulla,78.47,240.4,127.01,210.92,578.33,Single-ply,SBD,M
Boys,82.1,3,Lorenzo Huerta,PSJA Southwest,77.11,215.46,136.08,201.85,553.38,Single-ply,SBD,M
Boys,89.81,4,Brandon Garza,Rio Grande City,82.28,217.72,124.74,208.65,551.11,Single-ply,SBD,M
Boys,82.1,5,Jose Bernal,La Joya Palmview,78.74,204.12,117.93,206.38,528.44,Single-ply,SBD,M
Boys,82.1,6,Robert Hernandez,La Joya Juarez-Lincoln,79.38,204.12,115.67,206.38,526.17,Single-ply,SBD,M
Boys,82.1,7,Jorge Sanchez,PSJA Southwest,80.78,208.65,115.67,201.85,526.17,Single-ply,SBD,M
Boys,82.1,8,Omar Lozano,PSJA Memorial,79.92,201.85,117.93,188.24,508.02,Single-ply,SBD,M
Boys,82.1,9,Chriatian Segovia,Mission,80.29,188.24,108.86,197.31,494.42,Single-ply,SBD,M
Boys,82.1,10,Desse Zarate,Rio Grande City Grulla,81.37,197.31,111.13,176.9,485.34,Single-ply,SBD,M
Boys,82.1,11,Joseph Rios,Mission,80.1,174.63,102.06,176.9,453.59,Single-ply,SBD,M
Boys,82.1,12,Mario Cortinas,Mission,81.83,122.47,81.65,127.01,331.12,Single-ply,SBD,M
Boys,82.1,DQ,Jacob Hernandez,PSJA Memorial,77.16,185.97,127.01,,,Single-ply,SBD,M
Boys,89.81,1,Greg Diaz,Rio Grande City,85.18,217.72,117.93,217.72,553.38,Single-ply,SBD,M
Boys,89.81,2,Jonathon Soto,PSJA Southwest,89.27,226.8,127.01,192.78,546.58,Single-ply,SBD,M
Boys,89.81,3,Justin Candularia,PSJA,89.63,204.12,133.81,208.65,546.58,Single-ply,SBD,M
Boys,89.81,4,Manny Garza,PSJA Southwest,88.95,215.46,122.47,185.97,523.9,Single-ply,SBD,M
Boys,99.79,5,Jesse Valdez,PSJA,89.99,206.38,111.13,185.97,503.49,Single-ply,SBD,M
Boys,89.81,6,Thor Hernandez,PSJA North,84.82,204.12,106.59,181.44,492.15,Single-ply,SBD,M
Boys,89.81,7,Fernando Hernandez,La Joya Juarez-Lincoln,89.45,201.85,115.67,170.1,487.61,Single-ply,SBD,M
Boys,89.81,8,Javier de la Torre #1,Rio Grande City,88.36,158.76,88.45,170.1,417.3,Single-ply,SBD,M
Boys,89.81,9,Jesus Guajardo,La Joya,82.64,145.15,83.91,136.08,365.14,Single-ply,SBD,M
Boys,89.81,DQ,Zeke Trevino,PSJA Memorial,86.64,183.7,97.52,183.7,,Single-ply,SBD,M
Boys,89.81,DQ,Luis Rubio,Mission,85.09,,,,,Single-ply,SBD,M
Boys,89.81,DQ,Julio Garcia,La Joya Juarez-Lincoln,86.36,,,,,Single-ply,SBD,M
Boys,99.79,1,Angel Mercado,Donna,98.61,254.01,117.93,258.55,630.49,Single-ply,SBD,M
Boys,99.79,2,Faustino Saldana,PSJA Southwest,94.94,260.82,145.15,208.65,614.62,Single-ply,SBD,M
Boys,99.79,3,Noe Alonzo,PSJA Memorial,99.06,240.4,149.69,206.38,596.47,Single-ply,SBD,M
Boys,109.77,4,Joey Salas,PSJA,99.88,215.46,167.83,208.65,591.94,Single-ply,SBD,M
Boys,99.79,5,Joe de la Cruz,Rio Grande City Grulla,99.79,235.87,136.08,217.72,589.67,Single-ply,SBD,M
Boys,99.79,6,Leroy Rodriguez,La Joya Palmview,94.26,231.33,129.27,215.46,576.06,Single-ply,SBD,M
Boys,99.79,7,Tristan Echavarria,Donna,91.53,224.53,122.47,206.38,553.38,Single-ply,SBD,M
Boys,99.79,8,Brandon Lopez,Donna,91.81,213.19,136.08,204.12,553.38,Single-ply,SBD,M
Boys,99.79,9,Eddie Garza,Rio Grande City,91.17,192.78,142.88,195.04,530.7,Single-ply,SBD,M
Boys,99.79,10,Manuel Lerma,Donna North,95.16,213.19,127.01,185.97,526.17,Single-ply,SBD,M
Boys,99.79,11,Victor Tamez,PSJA,95.62,195.04,131.54,185.97,512.56,Single-ply,SBD,M
Boys,99.79,12,Vincente Palacios,PSJA North,97.98,185.97,122.47,181.44,489.88,Single-ply,SBD,M
Boys,99.79,13,Armando Chavero,Rio Grande City,98.88,181.44,120.2,183.7,485.34,Single-ply,SBD,M
Boys,99.79,14,Orlando Escobar,Mission,99.79,170.1,106.59,165.56,442.25,Single-ply,SBD,M
Boys,99.79,15,Juan Resendez,La Joya,94.71,147.42,111.13,161.03,419.57,Single-ply,SBD,M
Boys,99.79,DQ,Jesus Roiz,Rio Grande City Grulla,97.79,,,,,Single-ply,SBD,M
Boys,109.77,1,Kevin Trevino,PSJA North,106.59,256.28,163.29,251.74,671.32,Single-ply,SBD,M
Boys,109.77,2,Augustus Hernandez,PSJA North,108.41,238.14,129.27,242.67,610.08,Single-ply,SBD,M
Boys,109.77,3,Andres Martinez,PSJA,108.86,235.87,149.69,213.19,598.74,Single-ply,SBD,M
Boys,109.77,4,Francisco Perales,Donna North,101.7,240.4,140.61,210.92,591.94,Single-ply,SBD,M
Boys,109.77,5,Jonathon Grimaldo,Donna,105.41,235.87,129.27,224.53,589.67,Single-ply,SBD,M
Boys,109.77,6,Fidel Grimaldo,Donna North,101.51,201.85,124.74,231.33,557.92,Single-ply,SBD,M
Boys,109.77,7,Juan Martinez,Donna North,100.33,183.7,102.06,226.8,512.56,Single-ply,SBD,M
Boys,109.77,8,Mike Rodriguez,La Joya Palmview,101.6,192.78,108.86,210.92,512.56,Single-ply,SBD,M
Boys,109.77,9,Jesus Bonilla,Mission,107.77,185.97,90.72,142.88,419.57,Single-ply,SBD,M
Boys,109.77,DQ,Eddie Favata,PSJA North,108.86,215.46,,,,Single-ply,SBD,M
Boys,109.77,DQ,Orlando Neito,PSJA Memorial,109.45,251.74,,,,Single-ply,SBD,M
Boys,109.77,DQ,Samuel Rodriguez,La Joya,103.33,199.58,,,,Single-ply,SBD,M
Boys,109.77,DQ,Christian Ozuna,La Joya Juarez-Lincoln,106.59,208.65,106.59,,,Single-ply,SBD,M
Boys,124.74,1,Roger Benavidez,Rio Grande City,116.85,240.4,140.61,213.19,594.21,Single-ply,SBD,M
Boys,124.74,2,Edgar Rodriguez,Rio Grande City,124.01,258.55,115.67,210.92,585.13,Single-ply,SBD,M
Boys,124.74,3,Julian Rosales,Rio Grande City,121.83,213.19,117.93,219.99,551.11,Single-ply,SBD,M
Boys,124.74,4,Jose Ortiz,La Joya Juarez-Lincoln,117.12,192.78,115.67,185.97,494.42,Single-ply,SBD,M
Boys,124.74,5,Juan Torres #4,Donna,111.4,199.58,113.4,167.83,480.81,Single-ply,SBD,M
Boys,124.74,6,Ricardo Leyua,La Joya,113.22,176.9,111.13,161.03,449.06,Single-ply,SBD,M
Boys,124.74,7,Hilton Burleson,La Joya Palmview,113.4,163.29,113.4,165.56,442.25,Single-ply,SBD,M
Boys,124.74,8,Armando DeLeon,PSJA,118.02,149.69,102.06,174.63,426.38,Single-ply,SBD,M
Boys,124.74,DQ,Luis Costilla,Donna North,113.67,217.72,122.47,204.12,,Single-ply,SBD,M
Boys,124.74+,1,Erik Ortega,Rio Grande City,143.97,274.42,140.61,242.67,657.71,Single-ply,SBD,M
Boys,124.74+,2,Rey Guajardo,PSJA,147.42,263.08,163.29,204.12,630.49,Single-ply,SBD,M
Boys,124.74+,3,Rolando Suarez,PSJA,150.96,254.01,167.83,204.12,625.96,Single-ply,SBD,M
Boys,124.74+,4,Manuel Mata,PSJA North,125.01,242.67,149.69,222.26,614.62,Single-ply,SBD,M
Boys,124.74+,5,Jose Molina #1,Donna North,133.99,229.06,142.88,215.46,587.4,Single-ply,SBD,M
Boys,124.74+,6,Carlos Alvarez,La Joya Palmview,151.05,204.12,147.42,235.87,587.4,Single-ply,SBD,M
Boys,124.74+,7,Tommy Hernandez,PSJA Memorial,127.46,226.8,104.33,156.49,487.61,Single-ply,SBD,M
Boys,124.74+,DQ,Zeke Garza,La Joya,138.98,272.16,,,,Single-ply,SBD,M
