Name,Age,Sex,Division,BodyweightKg,WeightClassKg,Squat1Kg,Squat2Kg,Squat3Kg,Best3SquatKg,Bench1Kg,Bench2Kg,Bench3Kg,Best3BenchKg,Deadlift1Kg,Deadlift2Kg,Deadlift3Kg,Best3DeadliftKg,TotalKg,Place,Event,Tested,Equipment
Mark Buisson,34,M,M_SR_AAPF,88.5,90,,,,,150,165,175,175,,,,,175,1,B,Yes,Raw
Brian Burton,35,M,M_SR_AAPF,107.2,110,,,,,185,-192.5,-192.5,185,,,,,185,1,B,Yes,Raw
Matt Walsh,48,M,M_OR_APF,98.4,100,,,,,172.5,177.5,182.5,182.5,,,,,182.5,1,B,,Raw
Joe Gaffin,50,M,M_OR_AAPF,74.5,75,,,,,140,147.5,152.5,152.5,,,,,152.5,1,B,Yes,Raw
Vince Tindal,30,M,M_OR_AAPF,135.7,140,,,,,170,187.5,-195,187.5,,,,,187.5,1,B,Yes,Raw
Joe Gaffin,50,M,M_MR_3_AAPF,74.5,75,,,,,140,147.5,152.5,152.5,,,,,152.5,1,B,Yes,Raw
Matt Walsh,48,M,M_MR_2_APF,98.4,100,,,,,172.5,177.5,182.5,182.5,,,,,182.5,1,B,,Raw
Donald Waltz,49,M,M_MR_2_AAPF,89.9,90,,,,,107.5,-110,-110,107.5,,,,,107.5,1,B,Yes,Raw
Brian Budzinski,41,M,M_MR_1_AAPF,124.3,125,,,,,177.5,-185,-185,177.5,,,,,177.5,1,B,Yes,Raw
Zack Fowler,22,M,M_JR_AAPF,119.3,125,,,,,-145,-145,-145,,,,,,,DQ,B,Yes,Raw
Tate Briggs,16,M,M_TEM_2_AAPF,134.4,140,,,,,-160,160,172.5,172.5,,,,,172.5,1,B,Yes,Multi-ply
Dick Zenzen,59,M,M_MEM_4_APF,111.1,125,,,,,-185,185,-197.5,185,,,,,185,1,B,,Multi-ply
Bruce McCord,50,M,M_MEM_3_AAPF,122.6,125,,,,,257.5,-275,-275,257.5,,,,,257.5,1,B,Yes,Multi-ply
Nick Marinis,49,M,M_MEM_2_APF,86.5,90,,,,,215,-242.5,242.5,242.5,,,,,242.5,1,B,,Multi-ply
Jerry Foltz,47,M,M_MEM_2_APF,133,140,,,,,277.5,280,285,285,,,,,285,1,B,,Multi-ply
Fred Woodson Jr,44,M,M_MEM_1_APF,107.9,110,,,,,230,260,277.5,277.5,,,,,277.5,1,B,,Multi-ply
Nicholas Madsen,22,M,M_JEM_AAPF,89,90,,,,,-192.5,-197.5,-197.5,,,,,,,DQ,B,Yes,Multi-ply
Brooke Conner,28,F,F_OR_AAPF,66.1,67.5,,,,55,,,,47.5,,,,127.5,230,1,SBD,Yes,Raw
Samantha Ruttenberg,20,F,F_JR_AAPF,68.7,75,,,,85,,,,55,,,,107.5,247.5,1,SBD,Yes,Raw
Brittany Mabry,19,F,F_TR_3_AAPF,60.8,67.5,,,,92.5,,,,52.5,,,,105,250,1,SBD,Yes,Raw
Talia Besinger-Colton,40,F,F_MR_1_AAPF,58.5,60,,,,70,,,,57.5,,,,110,237.5,1,SBD,Yes,Raw
Charlie Long,41,F,F_MR_1_AAPF,67.2,67.5,,,,107.5,,,,67.5,,,,137.5,312.5,1,SBD,Yes,Raw
Kyle Laya,21,M,M_JEM_APF,131.2,140,,,,290,,,,190,,,,272.5,752.5,1,SBD,,Multi-ply
Jason Jester,24,M,M_OR_APF,72.2,75,,,,187.5,,,,107.5,,,,212.5,507.5,1,SBD,,Raw
Eric Johnsen,26,M,M_OR_APF,118.7,125,,,,227.5,,,,162.5,,,,237.5,627.5,1,SBD,,Raw
Russel DiNaro,26,M,M_OR_APF,121.6,125,,,,227.5,,,,165,,,,227.5,620,2,SBD,,Raw
Terry Smith #2,41,M,M_MR_1_AAPF,139.6,140,,,,272.5,,,,182.5,,,,295,750,1,SBD,Yes,Raw
Zach Willard,16,M,M_TR_2_AAPF,88.4,90,,,,160,,,,110,,,,185,455,1,SBD,Yes,Raw
Peter Puczko,38,M,M_SR_AAPF,89.9,90,,,,180,,,,110,,,,210,500,1,SBD,Yes,Raw
John Martinez,23,M,M_OR_AAPF,70.7,75,,,,165,,,,110,,,,177.5,452.5,1,SBD,Yes,Raw
Peter Puczko,38,M,M_OR_AAPF,89.9,90,,,,180,,,,110,,,,210,500,1,SBD,Yes,Raw
Jay Brown,31,M,M_OR_AAPF,89.9,90,,,,167.5,,,,105,,,,192.5,465,2,SBD,Yes,Raw
Dustin Piatkowski,28,M,M_OR_AAPF,92.3,100,,,,182.5,,,,127.5,,,,237.5,547.5,1,SBD,Yes,Raw
Russel DiNaro,26,M,M_OR_AAPF,121.6,125,,,,227.5,,,,165,,,,227.5,620,1,SBD,Yes,Raw
William Melrose,37,M,M_OR_AAPF,123.8,125,,,,160,,,,137.5,,,,210,507.5,2,SBD,Yes,Raw
Terry Smith #2,41,M,M_OR_AAPF,139.6,140,,,,272.5,,,,182.5,,,,295,750,1,SBD,Yes,Raw
Matt Winter,55,M,M_MR_4_AAPF,59.6,60,,,,77.5,,,,62.5,,,,150,290,1,SBD,Yes,Raw
Eric Ratzman,42,M,M_MEM_1_APF,145,140+,,,,240,,,,182.5,,,,250,672.5,1,SBD,,Multi-ply
Steve Poniatowski,55,M,M_MEM_4_APF,81.6,82.5,,,,150,,,,92.5,,,,200,442.5,1,SBD,,Multi-ply
Robert Falcioni,55,M,M_MEM_4_APF,111.9,125,,,,295,,,,187.5,,,,265,747.5,1,SBD,,Multi-ply
Robert Perez,45,M,M_MEM_2_APF,104.6,110,,,,320,,,,135,,,,235,690,1,SBD,,Multi-ply
Rick Roberts,48,M,M_MEM_2_APF,109.9,110,,,,,,,,,,,,,,DQ,SBD,,Multi-ply
Bama Hibbing,43,M,M_MEM_1_APF,87.3,90,,,,300,,,,175,,,,230,705,1,SBD,,Multi-ply
Joseph Werner,39,M,M_SEM_APF,110,110,,,,295,,,,192.5,,,,260,747.5,1,SBD,,Multi-ply
Jordan Evans #1,53,M,M_MEM_3_APF,90,90,,,,220,,,,107.5,,,,250,577.5,1,SBD,,Multi-ply
Patrick Shine,51,M,M_MEM_3_APF,89.4,90,,,,192.5,,,,,,,,,,DQ,SBD,,Multi-ply
Josue Gomez,27,M,M_OEM_APF,81.3,82.5,,,,227.5,,,,152.5,,,,205,585,1,SBD,,Multi-ply
Blake Summers,30,M,M_OEM_APF,98.2,100,,,,302.5,,,,215,,,,297.5,815,1,SBD,,Multi-ply
Chris Haigh,32,M,M_OEM_APF,107.7,110,,,,365,,,,282.5,,,,290,937.5,1,SBD,,Multi-ply
Stephen Wagner,29,M,M_OEM_APF,102.7,110,,,,377.5,,,,265,,,,275,917.5,2,SBD,,Multi-ply
Nicholas Lepine,28,M,M_OEM_APF,110,110,,,,367.5,,,,217.5,,,,300,885,3,SBD,,Multi-ply
Joseph Rogers #2,27,M,M_OEM_APF,107.4,110,,,,320,,,,192.5,,,,242.5,755,4,SBD,,Multi-ply
Brendan Luedtke,28,M,M_OEM_APF,124.6,125,,,,410,,,,252.5,,,,337.5,1000,1,SBD,,Multi-ply
Carlos Martinez #2,40,M,M_MEM_1_AAPF,117.6,125,,,,325,,,,185,,,,227.5,737.5,1,SBD,Yes,Multi-ply
Mike Strom,31,M,M_OEM_AAPF,89.5,90,,,,320,,,,257.5,,,,250,827.5,1,SBD,Yes,Multi-ply
Scott Kuderick,38,M,M_OEM_APF,89.9,90,,,,327.5,,,,,,,,,,DQ,SBD,,Multi-ply
Jordan Evans #1,53,M,M_MEM_3_APF,90,90,,,,220,,,,107.5,,,,250,577.5,1,SBD,,Multi-ply
Allan Engresso,39,M,M_SEM_APF,81.6,82.5,,,,272.5,,,,142.5,,,,217.5,632.5,1,SBD,,Multi-ply
Louis Ruiz Jr,35,M,M_SEM_APF,82.2,82.5,,,,242.5,,,,160,,,,202.5,605,2,SBD,,Multi-ply
Alex Trinidad #1,19,M,M_TEM_3_AAPF,72.5,75,,,,245,,,,140,,,,215,600,1,SBD,Yes,Multi-ply
Skylar Lambeth,18,M,M_TEM_3_AAPF,109.9,110,,,,260,,,,147.5,,,,202.5,610,1,SBD,Yes,Multi-ply
Forrest Grivetti,17,M,M_TEM_2_AAPF,70,75,,,,205,,,,115,,,,195,515,1,SBD,Yes,Multi-ply
Kirby Anderson,75,M,M_MEM_8_AAPF,66,67.5,,,,127.5,,,,90,,,,120,337.5,1,SBD,Yes,Multi-ply
