Place,Name,Sex,BirthDate,Age,Equipment,Division,BodyweightKg,WeightClassKg,Squat1Kg,Squat2Kg,Squat3Kg,Best3SquatKg,Bench1Kg,Bench2Kg,Bench3Kg,Best3BenchKg,Deadlift1Kg,Deadlift2Kg,Deadlift3Kg,Best3DeadliftKg,TotalKg,Event
1,Kim Jones #1,F,1959-01-01,63,Wraps,F_OCR_APF,69,75,80,97.5,107.5,107.5,50,55,57.5,57.5,107.5,122.5,132.5,132.5,297.5,SBD
1,Dolly Silvera,F,1978-01-01,44,Wraps,F_OCR_APF,90,90,120,132.5,142.5,142.5,75,80,82.5,82.5,137,160,172,172,397,SBD
1,Micky Walker,M,1984-12-01,37,Wraps,M_OCR_APF,73.5,75,85,-95,102.5,102.5,80,-87.5,87.5,87.5,115,132,150,150,340,SBD
1,Adrian Rodiguez,M,1994-01-01,28,Wraps,M_OCR_APF,123.5,125,205,225,232.5,232.5,137.5,150,-165,150,235,265,282.5,282.5,665,SBD
1,Nathaniel Rodriguez,M,1994-01-01,28,Wraps,M_OCR_APF,170,140+,255,272.5,-282.5,272.5,182.5,-197.5,-197.5,182.5,272.5,295,310,310,765,SBD
2,Mark Lopez,M,1989-01-17,33,Wraps,M_OCR_APF,185,140+,245,272.5,287.5,287.5,145,,,145,250,272.5,290,290,722.5,SBD
1,Morong Yom,M,1987-01-01,,Single-ply,M_OES_APF,73.5,75,140,150,160,160,-110,110,115,115,160,182.5,192.5,192.5,467.5,SBD
1,Freddie Lomelin,M,1962-01-01,60,Single-ply,M_OES_APF,99,100,,,,,140,-145,145,145,,,,,145,B
