﻿BDFPF BK. CHAMP BEL SQUAT UNEQ 2014
BK. SQUAT UNEQUIPPED 2014
1                                     - 44 KG Van Casteren   Hanne        V   Gilberts Gym          15 T1   40,0           50      55      65               77,60
1                                     - 80 KG Wuyts          Helen        V   Gilberts Gym          23 JR   70,4           100     110     115     125,5    86,83
1                                     75 KG Sudarminto       Indra            M    Planet Fitness   23 JR   73,2           200     215     -225             145,64
2                                     75 KG Marieën          Lenn         M   Do-It                 22 JR   74,8           180     190     197,5            131,52
3                                     75 KG Verbinnen        Sony             M    Gilberts Gym     22 JR   74,6           100     -120    125              83,41
1                                     75 KG Tirth            Ram          M   Isogym                41 M1   73,5           -180    -180    180     -185,5   121,54
1                                     75 KG Hallewaert       Bart         M   Isogym                45 M2   74,7           172,5   180     185     185,5    123,32
1                                     75 KG Callemeyn        Johny        M   KBBC                  60 M5   72,8           135     142,5   145     147,5    98,67
1                                     82,5 KG Jans           Ben              M    Patton Team      17 T2   80,0           -150    150     -155             94,94
1                                     90 KG Peeters          Alan         M   Do-It                 20 JR   89,3           190     205     215     220      126,44
1                                     110 KG Vermote         Gianni       M   Isogym                        41 M1  109,4   165     185     200     210,5    107,44
Nat Record                            World Record
European Record                       Best Lifter            Drugtested
21 Juni - Juin 2014 Turnhout
